6 Manipulating Data - Tables | Apache Arrow R Cookbook
…
You may have seen this before in packages like dbplyr which allow you to use
the dplyr API to interact with SQL databases.

The arrow package has been written so that the underlying Arrow table-like
objects can be manipulated via use of the dplyr API via the dplyr verbs.

For example, here’s a short pipeline of data manipulation which uses dplyr exclusively:

library(dplyr)
starwars %>%
  filter(species == "Human") %>%
  mutate(height_ft = height/30.48) %>%
  select(name, height_ft)

## # A tibble: 35 × 2
##    name               height_ft
##    <chr>                  <dbl>
##  1 Luke Skywalker          5.64
##  2 Darth Vader             6.63
##  3 Leia Organa             4.92
##  4 Owen Lars               5.84
##  5 Beru Whitesun lars      5.41
##  6 Biggs Darklighter       6.00
##  7 Obi-Wan Kenobi          5.97
##  8 Anakin Skywalker        6.17
##  9 Wilhuff Tarkin          5.91
## 10 Han Solo                5.91
## # … with 25 more rows
## # ℹ Use `print(n = ...)` to see more rows

And the same results as using arrow with dplyr syntax:

arrow_table(starwars) %>%
  filter(species == "Human") %>%
  mutate(height_ft = height/30.48) %>%
  select(name, height_ft) %>%
  collect()

## # A tibble: 35 × 2
##    name               height_ft
##    <chr>                  <dbl>
##  1 Luke Skywalker          5.64
##  2 Darth Vader             6.63
##  3 Leia Organa             4.92
##  4 Owen Lars               5.84
##  5 Beru Whitesun lars      5.41
##  6 Biggs Darklighter       6.00
##  7 Obi-Wan Kenobi          5.97
##  8 Anakin Skywalker        6.17
##  9 Wilhuff Tarkin          5.91
## 10 Han Solo                5.91
## # … with 25 more rows
## # ℹ Use `print(n = ...)` to see more rows
…
dplyr

If you try to call a function which does not have arrow mapping, the data will
be pulled back into R, and you will see a warning message.

library(stringr)

arrow_table(starwars) %>%
  mutate(name_split = str_split_fixed(name, " ", 2)) %>%
  collect()

## Warning: Expression str_split_fixed(name, " ", 2) not supported in Arrow;
## pulling data into R

## # A tibble: 87 × 15
##    name        height  mass hair_…¹ skin_…² eye_c…³ birth…⁴ sex   gender homew…⁵
##    <chr>        <int> <dbl> <chr>   <chr>   <chr>     <dbl> <chr> <chr>  <chr>  
##  1 Luke Skywa…    172    77 blond   fair    blue       19   male  mascu… Tatooi…
##  2 C-3PO          167    75 <NA>    gold    yellow    112   none  mascu… Tatooi…
##  3 R2-D2           96    32 <NA>    white,… red        33   none  mascu… Naboo  
##  4 Darth Vader    202   136 none    white   yellow     41.9 male  mascu… Tatooi…
##  5 Leia Organa    150    49 brown   light   brown      19   fema… femin… Aldera…
##  6 Owen Lars      178   120 brown,… light   blue       52   male  mascu… Tatooi…
##  7 Beru White…    165    75 brown   light   blue       47   fema… femin… Tatooi…
##  8 R5-D4           97    32 <NA>    white,… red        NA   none  mascu… Tatooi…
##  9 Biggs Dark…    183    84 black   light   brown      24   male  mascu… Tatooi…
## 10 Obi-Wan Ke…    182    77 auburn… fair    blue-g…    57   male  mascu… Stewjon
## # … with 77 more rows, 5 more variables: species <chr>,
## #   films <list<character>>, vehicles <list<character>>,
## #   starships <list<character>>, name_split <chr[,2]>, and abbreviated variable
## #   names ¹​hair_color, ²​skin_color, ³​eye_color, ⁴​birth_year, ⁵​homeworld
## # ℹ Use `print(n = ...)` to see more rows, and `colnames()` to see all variable names
…
You want to use a function which is implemented in Arrow’s C++ library but either:

it doesn’t have a mapping to a base R or tidyverse equivalent, or

it has a mapping but nevertheless you want to call the C++ function directly

6.4.1 Solution

arrow_table(starwars) %>%
  select(name) %>%
  mutate(padded_name = arrow_ascii_lpad(name, options = list(width = 10, padding = "*"))) %>%
  collect()

## # A tibble: 87 × 2
##    name               padded_name       
##    <chr>              <chr>             
##  1 Luke Skywalker     Luke Skywalker    
##  2 C-3PO              *****C-3PO        
##  3 R2-D2              *****R2-D2        
##  4 Darth Vader        Darth Vader       
##  5 Leia Organa        Leia Organa       
##  6 Owen Lars          *Owen Lars        
##  7 Beru Whitesun lars Beru Whitesun lars
##  8 R5-D4              *****R5-D4        
##  9 Biggs Darklighter  Biggs Darklighter 
## 10 Obi-Wan Kenobi     Obi-Wan Kenobi    
## # … with 77 more rows
## # ℹ Use `print(n = ...)` to see more rows
…
